[
    {
        "WarehosueId": "MC1",
        "BinList": [
            {
                "BinId" : "TMP001",
                "BinTypeDesc" : "Flat Area For GR",
                "Area" : ""
            },
            {
                "BinId" : "TMP002",
                "BinTypeDesc" : "Flat Area For GI",
                "Area" : ""
            },
            {
                "BinId": "A001",
                "BinTypeDesc": "Storage Flat Area",
                "Area" : "A"
            },
            {
                "BinId": "A002",
                "BinTypeDesc": "Storage Flat Area",
                "Area" : "A"
            },
            {
                "BinId": "A003",
                "BinTypeDesc": "Storage Flat Area",
                "Area" : "A"
            },
            {
                "BinId": "B001",
                "BinTypeDesc": "Storage Low Rack",
                "Area" : "B"
            },
            {
                "BinId": "B002",
                "BinTypeDesc": "Storage Low Rack",
                "Area" : "B"
            },
            {
                "BinId" : "PCK001",
                "BinTypeDesc" : "Flat Area For Packing",
                "Area" : ""
            },
            {
                "BinId" : "PCK002",
                "BinTypeDesc" : "Flat Area For Packing",
                "Area" : ""
            }
        ]
    },
    {
        "WarehosueId": "DC1",
        "BinList": [
            {
                "BinId" : "TMP001",
                "BinTypeDesc" : "Flat Area For GR",
                "Area" : ""
            },
            {
                "BinId": "A001",
                "BinTypeDesc": "Storage Flat Area",
                "Area" : "A"
            },
            {
                "BinId": "A002",
                "BinTypeDesc": "Storage Flat Area",
                "Area" : "A"
            },
            {
                "BinId": "A003",
                "BinTypeDesc": "Storage Flat Area",
                "Area" : "A"
            },
            {
                "BinId": "B001",
                "BinTypeDesc": "Storage High Rack",
                "Area" : "B"
            },
            {
                "BinId": "B002",
                "BinTypeDesc": "Storage High Rack",
                "Area" : "B"
            },
            {
                "BinId": "SHP001",
                "BinTypeDesc": "Shipping gate",
                "Area" : ""
                
            },
            {
                "BinId": "SHP002",
                "BinTypeDesc": "Shipping gate",
                "Area" : ""
            },
            {
                "BinId": "SHP003",
                "BinTypeDesc": "Shipping gate",
                "Area" : ""
            }
        ]
    },
    {
        "WarehosueId": "DC2",
        "BinList": [
            {
                "BinId" : "TMP001",
                "BinTypeDesc" : "Flat Area For GR",
                "Area" : ""
            },
            {
                "BinId": "A001",
                "BinTypeDesc": "Storage Flat Area",
                "Area" : "A"
            },
            {
                "BinId": "A002",
                "BinTypeDesc": "Storage Flat Area",
                "Area" : "A"
            },
            {
                "BinId": "B001",
                "BinTypeDesc": "Storage Dept High Rack",
                "Area" : "B"
            },
            {
                "BinId": "B002",
                "BinTypeDesc": "Storage Dept High Rack",
                "Area" : "B"
            },
            {
                "BinId": "B003",
                "BinTypeDesc": "Storage Dept High Rack",
                "Area" : "B"
            },
            {
                "BinId": "SHP001",
                "BinTypeDesc": "Shipping gate",
                "Area" : ""
            },
            {
                "BinId": "SHP002",
                "BinTypeDesc": "Shipping gate",
                "Area" : ""
            },
            {
                "BinId": "SHP003",
                "BinTypeDesc": "Shipping gate"
            }
        ]
    }
]